Fall_2022/proj2/trace.vcd
$version Generated by VerilatedVcd $end
$date Wed Sep 21 15:56:27 2022
 $end
$timescale   1ns $end

 $scope module TOP $end
  $var wire  1 [, clk $end
  $var wire  1 c, reset $end
  $scope module pipeline $end
   $var wire 138 c( AGEX_latch_out [137:0] $end
   $var wire 202 +( DE_latch_out [201:0] $end
   $var wire 132 a' FE_latch_out [131:0] $end
   $var wire 138 -) MEM_latch_out [137:0] $end
   $var wire  1 [, clk $end
   $var wire 32 Y' cycle_count [31:0] $end
   $var wire 12 U) from_AGEX_to_DE [11:0] $end
   $var wire  1 72 from_AGEX_to_FE [0:0] $end
   $var wire  1 3 from_DE_to_FE [0:0] $end
   $var wire  1 O2 from_MEM_to_AGEX [0:0] $end
   $var wire 12 ]) from_MEM_to_DE [11:0] $end
   $var wire  1 ?2 from_MEM_to_FE [0:0] $end
   $var wire  1 W2 from_WB_to_AGEX [0:0] $end
   $var wire 55 ; from_WB_to_DE [54:0] $end
   $var wire  1 G2 from_WB_to_FE [0:0] $end
   $var wire  1 _2 from_WB_to_MEM [0:0] $end
   $var wire  1 c, reset $end
   $scope module my_AGEX_stage $end
    $var wire 138 c( AGEX_latch [137:0] $end
    $var wire 138 u! AGEX_latch_contents [137:0] $end
    $var wire 138 c( AGEX_latch_out [137:0] $end
    $var wire 32 w* PC_AGEX [31:0] $end
    $var wire  1 9+ br_cond_AGEX $end
    $var wire  4 Q+ bus_canary_AGEX [3:0] $end
    $var wire  1 [, clk $end
    $var wire 12 U) from_AGEX_to_DE [11:0] $end
    $var wire  1 72 from_AGEX_to_FE [0:0] $end
    $var wire 202 +( from_DE_latch [201:0] $end
    $var wire  1 O2 from_MEM_to_AGEX [0:0] $end
    $var wire  1 W2 from_WB_to_AGEX [0:0] $end
    $var wire 32 o* inst_AGEX [31:0] $end
    $var wire 32 !+ inst_count_AGEX [31:0] $end
    $var wire  6 1+ op_I_AGEX [5:0] $end
    $var wire 32 )+ pcplus_AGEX [31:0] $end
    $var wire 32 A+ regword_1 [31:0] $end
    $var wire 32 I+ regword_2 [31:0] $end
    $var wire  1 c, reset $end
    $var wire 32 ?" result [31:0] $end
   $upscope $end
   $scope module my_DE_stage $end
    $var wire 202 +( DE_latch [201:0] $end
    $var wire 202 g" DE_latch_contents [201:0] $end
    $var wire 202 +( DE_latch_out [201:0] $end
    $var wire  3 G* F3_DE [2:0] $end
    $var wire  7 O* F7_DE [6:0] $end
    $var wire 32 '* PC_DE [31:0] $end
    $var wire  7 _* agex_op [6:0] $end
    $var wire  5 g* agex_write_to [4:0] $end
    $var wire  4 ?* bus_canary_DE [3:0] $end
    $var wire  1 [, clk $end
    $var wire 32 '& csr_regs(0) [31:0] $end
    $var wire 32 (& csr_regs(1) [31:0] $end
    $var wire 32 1& csr_regs(10) [31:0] $end
    $var wire 32 2& csr_regs(11) [31:0] $end
    $var wire 32 3& csr_regs(12) [31:0] $end
    $var wire 32 4& csr_regs(13) [31:0] $end
    $var wire 32 5& csr_regs(14) [31:0] $end
    $var wire 32 6& csr_regs(15) [31:0] $end
    $var wire 32 )& csr_regs(2) [31:0] $end
    $var wire 32 *& csr_regs(3) [31:0] $end
    $var wire 32 +& csr_regs(4) [31:0] $end
    $var wire 32 ,& csr_regs(5) [31:0] $end
    $var wire 32 -& csr_regs(6) [31:0] $end
    $var wire 32 .& csr_regs(7) [31:0] $end
    $var wire 32 /& csr_regs(8) [31:0] $end
    $var wire 32 0& csr_regs(9) [31:0] $end
    $var wire 12 U) from_AGEX_to_DE [11:0] $end
    $var wire  1 3 from_DE_to_FE [0:0] $end
    $var wire 132 a' from_FE_latch [131:0] $end
    $var wire 12 ]) from_MEM_to_DE [11:0] $end
    $var wire 55 ; from_WB_to_DE [54:0] $end
    $var wire 32 }) inst_DE [31:0] $end
    $var wire 32 7* inst_count_DE [31:0] $end
    $var wire  7 _* mem_op [6:0] $end
    $var wire  5 g* mem_write_to [4:0] $end
    $var wire  7 W* op_DE [6:0] $end
    $var wire  6 { op_I_DE [5:0] $end
    $var wire 32 /* pcplus_DE [31:0] $end
    $var wire  1 3 pipeline_stall_DE $end
    $var wire 32 A# regs(0) [31:0] $end
    $var wire 32 B# regs(1) [31:0] $end
    $var wire 32 K# regs(10) [31:0] $end
    $var wire 32 L# regs(11) [31:0] $end
    $var wire 32 M# regs(12) [31:0] $end
    $var wire 32 N# regs(13) [31:0] $end
    $var wire 32 O# regs(14) [31:0] $end
    $var wire 32 P# regs(15) [31:0] $end
    $var wire 32 Q# regs(16) [31:0] $end
    $var wire 32 R# regs(17) [31:0] $end
    $var wire 32 S# regs(18) [31:0] $end
    $var wire 32 T# regs(19) [31:0] $end
    $var wire 32 C# regs(2) [31:0] $end
    $var wire 32 U# regs(20) [31:0] $end
    $var wire 32 V# regs(21) [31:0] $end
    $var wire 32 W# regs(22) [31:0] $end
    $var wire 32 X# regs(23) [31:0] $end
    $var wire 32 Y# regs(24) [31:0] $end
    $var wire 32 Z# regs(25) [31:0] $end
    $var wire 32 [# regs(26) [31:0] $end
    $var wire 32 \# regs(27) [31:0] $end
    $var wire 32 ]# regs(28) [31:0] $end
    $var wire 32 ^# regs(29) [31:0] $end
    $var wire 32 D# regs(3) [31:0] $end
    $var wire 32 _# regs(30) [31:0] $end
    $var wire 32 `# regs(31) [31:0] $end
    $var wire 32 E# regs(4) [31:0] $end
    $var wire 32 F# regs(5) [31:0] $end
    $var wire 32 G# regs(6) [31:0] $end
    $var wire 32 H# regs(7) [31:0] $end
    $var wire 32 I# regs(8) [31:0] $end
    $var wire 32 J# regs(9) [31:0] $end
    $var wire 32 M! regval_WB [31:0] $end
    $var wire 32 I' regword_1 [31:0] $end
    $var wire 32 Q' regword_2 [31:0] $end
    $var wire  1 c, reset $end
    $var wire 32 5! sxt_imm_DE [31:0] $end
    $var wire  4 %! type_I_DE [3:0] $end
    $var wire  3 -! type_immediate_DE [2:0] $end
    $var wire  7 e! wb_op [6:0] $end
    $var wire  5 m! wb_write_to [4:0] $end
    $var wire  4 U! wcsrno_WB [3:0] $end
    $var wire  1 ]! wr_csr_WB $end
    $var wire  1 =! wr_reg_WB $end
    $var wire  5 E! wregno_WB [4:0] $end
    $scope module unnamedblk1 $end
     $var wire 32 # i [31:0] $end
    $upscope $end
    $scope module unnamedblk2 $end
     $var wire 32 + i [31:0] $end
    $upscope $end
   $upscope $end
   $scope module my_FE_stage $end
    $var wire 132 a' FE_latch [131:0] $end
    $var wire 132 S FE_latch_contents [131:0] $end
    $var wire 132 a' FE_latch_out [131:0] $end
    $var wire 32 e) PC_FE_latch [31:0] $end
    $var wire  1 [, clk $end
    $var wire  1 72 from_AGEX_to_FE [0:0] $end
    $var wire  1 3 from_DE_to_FE [0:0] $end
    $var wire  1 ?2 from_MEM_to_FE [0:0] $end
    $var wire  1 G2 from_WB_to_FE [0:0] $end
    $var wire 32 K inst_FE [31:0] $end
    $var wire 32 o2 inst_count_AGEX [31:0] $end
    $var wire 32 u) inst_count_FE [31:0] $end
    $var wire 32 m) pcplus_FE [31:0] $end
    $var wire  1 c, reset $end
    $var wire  1 g2 stall_pipe_FE $end
   $upscope $end
   $scope module my_MEM_stage $end
    $var wire 138 -) MEM_latch [137:0] $end
    $var wire 138 c( MEM_latch_contents [137:0] $end
    $var wire 138 -) MEM_latch_out [137:0] $end
    $var wire 32 q+ PC_MEM [31:0] $end
    $var wire  4 #, bus_canary_MEM [3:0] $end
    $var wire  1 [, clk $end
    $var wire 138 c( from_AGEX_latch [137:0] $end
    $var wire  1 O2 from_MEM_to_AGEX [0:0] $end
    $var wire 12 ]) from_MEM_to_DE [11:0] $end
    $var wire  1 ?2 from_MEM_to_FE [0:0] $end
    $var wire  1 _2 from_WB_to_MEM [0:0] $end
    $var wire 32 i+ inst_MEM [31:0] $end
    $var wire 32 a+ inst_count_MEM [31:0] $end
    $var wire 32 w2 memaddr_MEM [31:0] $end
    $var wire  6 Y+ op_I_MEM [5:0] $end
    $var wire 32 G" rd_val_MEM [31:0] $end
    $var wire  1 c, reset $end
    $var wire 32 y+ result [31:0] $end
    $var wire  1 )3 wr_mem_MEM $end
    $var wire 32 !3 wr_val_MEM [31:0] $end
   $upscope $end
   $scope module my_WB_stage $end
    $var wire 32 ;, PC_WB [31:0] $end
    $var wire 32 Q/ WB_counters(0) [31:0] $end
    $var wire 32 R/ WB_counters(1) [31:0] $end
    $var wire 32 [/ WB_counters(10) [31:0] $end
    $var wire 32 \/ WB_counters(11) [31:0] $end
    $var wire 32 ]/ WB_counters(12) [31:0] $end
    $var wire 32 ^/ WB_counters(13) [31:0] $end
    $var wire 32 _/ WB_counters(14) [31:0] $end
    $var wire 32 `/ WB_counters(15) [31:0] $end
    $var wire 32 a/ WB_counters(16) [31:0] $end
    $var wire 32 b/ WB_counters(17) [31:0] $end
    $var wire 32 c/ WB_counters(18) [31:0] $end
    $var wire 32 d/ WB_counters(19) [31:0] $end
    $var wire 32 S/ WB_counters(2) [31:0] $end
    $var wire 32 e/ WB_counters(20) [31:0] $end
    $var wire 32 f/ WB_counters(21) [31:0] $end
    $var wire 32 g/ WB_counters(22) [31:0] $end
    $var wire 32 h/ WB_counters(23) [31:0] $end
    $var wire 32 i/ WB_counters(24) [31:0] $end
    $var wire 32 j/ WB_counters(25) [31:0] $end
    $var wire 32 k/ WB_counters(26) [31:0] $end
    $var wire 32 l/ WB_counters(27) [31:0] $end
    $var wire 32 m/ WB_counters(28) [31:0] $end
    $var wire 32 n/ WB_counters(29) [31:0] $end
    $var wire 32 T/ WB_counters(3) [31:0] $end
    $var wire 32 o/ WB_counters(30) [31:0] $end
    $var wire 32 p/ WB_counters(31) [31:0] $end
    $var wire 32 U/ WB_counters(4) [31:0] $end
    $var wire 32 V/ WB_counters(5) [31:0] $end
    $var wire 32 W/ WB_counters(6) [31:0] $end
    $var wire 32 X/ WB_counters(7) [31:0] $end
    $var wire 32 Y/ WB_counters(8) [31:0] $end
    $var wire 32 Z/ WB_counters(9) [31:0] $end
    $var wire  4 S, bus_canary_WB [3:0] $end
    $var wire  1 [, clk $end
    $var wire 138 -) from_MEM_latch [137:0] $end
    $var wire  1 W2 from_WB_to_AGEX [0:0] $end
    $var wire 55 ; from_WB_to_DE [54:0] $end
    $var wire  1 G2 from_WB_to_FE [0:0] $end
    $var wire  1 _2 from_WB_to_MEM [0:0] $end
    $var wire 32 3, inst_WB [31:0] $end
    $var wire 32 C, inst_count_WB [31:0] $end
    $var wire 32 k, last_WB_value(0) [31:0] $end
    $var wire 32 l, last_WB_value(1) [31:0] $end
    $var wire 32 u, last_WB_value(10) [31:0] $end
    $var wire 32 v, last_WB_value(11) [31:0] $end
    $var wire 32 w, last_WB_value(12) [31:0] $end
    $var wire 32 x, last_WB_value(13) [31:0] $end
    $var wire 32 y, last_WB_value(14) [31:0] $end
    $var wire 32 z, last_WB_value(15) [31:0] $end
    $var wire 32 {, last_WB_value(16) [31:0] $end
    $var wire 32 |, last_WB_value(17) [31:0] $end
    $var wire 32 }, last_WB_value(18) [31:0] $end
    $var wire 32 ~, last_WB_value(19) [31:0] $end
    $var wire 32 m, last_WB_value(2) [31:0] $end
    $var wire 32 !- last_WB_value(20) [31:0] $end
    $var wire 32 "- last_WB_value(21) [31:0] $end
    $var wire 32 #- last_WB_value(22) [31:0] $end
    $var wire 32 $- last_WB_value(23) [31:0] $end
    $var wire 32 %- last_WB_value(24) [31:0] $end
    $var wire 32 &- last_WB_value(25) [31:0] $end
    $var wire 32 '- last_WB_value(26) [31:0] $end
    $var wire 32 (- last_WB_value(27) [31:0] $end
    $var wire 32 )- last_WB_value(28) [31:0] $end
    $var wire 32 *- last_WB_value(29) [31:0] $end
    $var wire 32 n, last_WB_value(3) [31:0] $end
    $var wire 32 +- last_WB_value(30) [31:0] $end
    $var wire 32 ,- last_WB_value(31) [31:0] $end
    $var wire 32 o, last_WB_value(4) [31:0] $end
    $var wire 32 p, last_WB_value(5) [31:0] $end
    $var wire 32 q, last_WB_value(6) [31:0] $end
    $var wire 32 r, last_WB_value(7) [31:0] $end
    $var wire 32 s, last_WB_value(8) [31:0] $end
    $var wire 32 t, last_WB_value(9) [31:0] $end
    $var wire  6 +, op_I_WB [5:0] $end
    $var wire 32 _" regval_WB [31:0] $end
    $var wire  1 c, reset $end
    $var wire 32 K, result [31:0] $end
    $var wire  4 13 wcsrno_WB [3:0] $end
    $var wire  1 93 wr_csr_WB $end
    $var wire  1 O" wr_reg_WB $end
    $var wire  5 W" wregno_WB [4:0] $end
   $upscope $end
  $upscope $end
 $upscope $end
$enddefinitions $end


#0
b00000000000000000000000000100000 #
b00000000000000000000000000010000 +
03
b0000000000000000000000000000000000000000000000000000000 ;
b00000000000000000000000100000000 K
b000000000000000000000001000000000000000000000000000000000000000000000000000000000000000000000100000000000000000000000000000000001111 S
b100101 {
b0000 %!
b000 -!
b00000000000000000000000000000000 5!
0=!
b00000 E!
b00000000000000000000000000000000 M!
b0000 U!
0]!
b0000000 e!
b00000 m!
b000000000000000000000000000000000000000000000000000000000000000000000000000000000000000000000000000000000000000000000000000000000000000000 u!
b00000000000000000000000000000000 ?"
b00000000000000000000000100000000 G"
0O"
b00000 W"
b00000000000000000000000000000000 _"
b0000000000000000000000000000000000000000000000000000000000000000000000000000000000000000000000001001010000000000000000000000000000000000000000000000000000000000000000000000000000000000000000000000000000 g"
b00000000000000000000000000000000 A#
b00000000000000000000000000000000 B#
b00000000000000000000000000000000 C#
b00000000000000000000000000000000 D#
b00000000000000000000000000000000 E#
b00000000000000000000000000000000 F#
b00000000000000000000000000000000 G#
b00000000000000000000000000000000 H#
b00000000000000000000000000000000 I#
b00000000000000000000000000000000 J#
b00000000000000000000000000000000 K#
b00000000000000000000000000000000 L#
b00000000000000000000000000000000 M#
b00000000000000000000000000000000 N#
b00000000000000000000000000000000 O#
b00000000000000000000000000000000 P#
b00000000000000000000000000000000 Q#
b00000000000000000000000000000000 R#
b00000000000000000000000000000000 S#
b00000000000000000000000000000000 T#
b00000000000000000000000000000000 U#
b00000000000000000000000000000000 V#
b00000000000000000000000000000000 W#
b00000000000000000000000000000000 X#
b00000000000000000000000000000000 Y#
b00000000000000000000000000000000 Z#
b00000000000000000000000000000000 [#
b00000000000000000000000000000000 \#
b00000000000000000000000000000000 ]#
b00000000000000000000000000000000 ^#
b00000000000000000000000000000000 _#
b00000000000000000000000000000000 `#
b00000000000000000000000000000000 '&
b00000000000000000000000000000000 (&
b00000000000000000000000000000000 )&
b00000000000000000000000000000000 *&
b00000000000000000000000000000000 +&
b00000000000000000000000000000000 ,&
b00000000000000000000000000000000 -&
b00000000000000000000000000000000 .&
b00000000000000000000000000000000 /&
b00000000000000000000000000000000 0&
b00000000000000000000000000000000 1&
b00000000000000000000000000000000 2&
b00000000000000000000000000000000 3&
b00000000000000000000000000000000 4&
b00000000000000000000000000000000 5&
b00000000000000000000000000000000 6&
b00000000000000000000000000000000 I'
b00000000000000000000000000000000 Q'
b00000000000000000000000000000000 Y'
b000000000000000000000000000000000000000000000000000000000000000000000000000000000000000000000000000000000000000000000000000000000000 a'
b0000000000000000000000000000000000000000000000000000000000000000000000000000000000000000000000000000000000000000000000000000000000000000000000000000000000000000000000000000000000000000000000000000000000 +(
b000000000000000000000000000000000000000000000000000000000000000000000000000000000000000000000000000000000000000000000000000000000000000000 c(
b000000000000000000000000000000000000000000000000000000000000000000000000000000000000000000000000000000000000000000000000000000000000000000 -)
b000000000000 U)
b000000000000 ])
b00000000000000000000000000000000 e)
b00000000000000000000000000000100 m)
b00000000000000000000000000000000 u)
b00000000000000000000000000000000 })
b00000000000000000000000000000000 '*
b00000000000000000000000000000000 /*
b00000000000000000000000000000000 7*
b0000 ?*
b000 G*
b0000000 O*
b0000000 W*
b0000000 _*
b00000 g*
b00000000000000000000000000000000 o*
b00000000000000000000000000000000 w*
b00000000000000000000000000000000 !+
b00000000000000000000000000000000 )+
b000000 1+
09+
b00000000000000000000000000000000 A+
b00000000000000000000000000000000 I+
b0000 Q+
b000000 Y+
b00000000000000000000000000000000 a+
b00000000000000000000000000000000 i+
b00000000000000000000000000000000 q+
b00000000000000000000000000000000 y+
b0000 #,
b000000 +,
b00000000000000000000000000000000 3,
b00000000000000000000000000000000 ;,
b00000000000000000000000000000000 C,
b00000000000000000000000000000000 K,
b0000 S,
0[,
0c,
b00000000000000000000000000000000 k,
b00000000000000000000000000000000 l,
b00000000000000000000000000000000 m,
b00000000000000000000000000000000 n,
b00000000000000000000000000000000 o,
b00000000000000000000000000000000 p,
b00000000000000000000000000000000 q,
b00000000000000000000000000000000 r,
b00000000000000000000000000000000 s,
b00000000000000000000000000000000 t,
b00000000000000000000000000000000 u,
b00000000000000000000000000000000 v,
b00000000000000000000000000000000 w,
b00000000000000000000000000000000 x,
b00000000000000000000000000000000 y,
b00000000000000000000000000000000 z,
b00000000000000000000000000000000 {,
b00000000000000000000000000000000 |,
b00000000000000000000000000000000 },
b00000000000000000000000000000000 ~,
b00000000000000000000000000000000 !-
b00000000000000000000000000000000 "-
b00000000000000000000000000000000 #-
b00000000000000000000000000000000 $-
b00000000000000000000000000000000 %-
b00000000000000000000000000000000 &-
b00000000000000000000000000000000 '-
b00000000000000000000000000000000 (-
b00000000000000000000000000000000 )-
b00000000000000000000000000000000 *-
b00000000000000000000000000000000 +-
b00000000000000000000000000000000 ,-
b00000000000000000000000000000000 Q/
b00000000000000000000000000000000 R/
b00000000000000000000000000000000 S/
b00000000000000000000000000000000 T/
b00000000000000000000000000000000 U/
b00000000000000000000000000000000 V/
b00000000000000000000000000000000 W/
b00000000000000000000000000000000 X/
b00000000000000000000000000000000 Y/
b00000000000000000000000000000000 Z/
b00000000000000000000000000000000 [/
b00000000000000000000000000000000 \/
b00000000000000000000000000000000 ]/
b00000000000000000000000000000000 ^/
b00000000000000000000000000000000 _/
b00000000000000000000000000000000 `/
b00000000000000000000000000000000 a/
b00000000000000000000000000000000 b/
b00000000000000000000000000000000 c/
b00000000000000000000000000000000 d/
b00000000000000000000000000000000 e/
b00000000000000000000000000000000 f/
b00000000000000000000000000000000 g/
b00000000000000000000000000000000 h/
b00000000000000000000000000000000 i/
b00000000000000000000000000000000 j/
b00000000000000000000000000000000 k/
b00000000000000000000000000000000 l/
b00000000000000000000000000000000 m/
b00000000000000000000000000000000 n/
b00000000000000000000000000000000 o/
b00000000000000000000000000000000 p/
072
0?2
0G2
0O2
0W2
0_2
0g2
b00000000000000000000000000000000 o2
b00000000000000000000000000000000 w2
b00000000000000000000000000000000 !3
0)3
b0000 13
093
#1
b00000000000000000000000100010011 K
b000000000000000000000001000100110000000000000000000000000000010000000000000000000000000000001000000000000000000000000000000000011111 S
b000000000000000000000000000000000000000000000000000000000000000010010100000000000000000000000000000000000000000000000000000000000000000000 u!
b0000000000000000000000010000000000000000000000000000000000000000000000000000000000000000000001001001010000000000000000000000000000000000000000000000000000000000000000000000000000000000000000000000001111 g"
b00000000000000000000000000000001 Y'
b000000000000000000000001000000000000000000000000000000000000000000000000000000000000000000000100000000000000000000000000000000001111 a'
b0000000000000000000000000000000000000000000000000000000000000000000000000000000000000000000000001001010000000000000000000000000000000000000000000000000000000000000000000000000000000000000000000000000000 +(
b00000000000000000000000000000100 e)
b00000000000000000000000000001000 m)
b00000000000000000000000000000001 u)
b00000000000000000000000100000000 })
b00000000000000000000000000000100 /*
b1111 ?*
b100101 1+
1[,
#2
0[,
1c,
#3
b00000000000100000000001100010011 K
b000000000001000000000011000100110000000000000000000000100000000000000000000000000000001000000100000000000000000000000000000000011111 S
b000000000000000000000000000000000000000000000000000000000000000000000000000000000000000000000000000000000000000000000000000000000000000000 u!
b0000000000000000000000000000000000000000000000000000000000000000000000000000000000000000000000001001010000000000000000000000000000000000000000000000000000000000000000000000000000000000000000000000000000 g"
b00000000000000000000000000000000 Y'
b000000000000000000000000000000000000000000000000000000000000000000000000000000000000000000000000000000000000000000000000000000000000 a'
b0000000000000000000000000000000000000000000000000000000000000000000000000000000000000000000000000000000000000000000000000000000000000000000000000000000000000000000000000000000000000000000000000000000000 +(
b00000000000000000000001000000000 e)
b00000000000000000000001000000100 m)
b00000000000000000000000000000000 })
b00000000000000000000000000000000 /*
b0000 ?*
b000000 1+
1[,
#4
0[,
#5
1[,
#6
0[,
#7
1[,
#8
0[,
#9
1[,
#10
#11
0[,
#12
1[,
#13
0[,
#14
1[,
#15
0[,
#16
1[,
#17
0[,
#18
1[,
#19
0[,
#20
#21
1[,
#22
0[,
#23
1[,
#24
0[,
#25
1[,
#26
0[,
#27
1[,
#28
0[,
#29
1[,
#30
#31
0[,
#32
1[,
#33
0[,
#34
1[,
#35
0[,
#36
1[,
#37
0[,
#38
1[,
#39
0[,
#40
#41
1[,
#42
0[,
#43
1[,
#44
0[,
#45
1[,
#46
0[,
#47
1[,
#48
0[,
#49
1[,
#50
#51
0[,
#52
1[,
#53
0[,
#54
1[,
#55
0[,
#56
1[,
#57
0[,
#58
1[,
#59
0[,
#60
#61
1[,
#62
0[,
#63
1[,
#64
0[,
#65
1[,
#66
0[,
#67
1[,
#68
0[,
#69
1[,
#70
#71
0[,
#72
1[,
#73
0[,
#74
1[,
#75
0[,
#76
1[,
#77
0[,
#78
1[,
#79
0[,
#80
#81
1[,
#82
0[,
#83
1[,
#84
0[,
#85
1[,
#86
0[,
#87
1[,
#88
0[,
#89
1[,
#90
#91
0[,
#92
1[,
#93
0[,
#94
1[,
#95
0[,
#96
1[,
#97
0[,
#98
1[,
#99
0[,
#100
0c,
#101
b00000000000100000000001110010011 K
b000000000001000000000011100100110000000000000000000000100000010000000000000000000000001000001000000000000000000000000000000000101111 S
b001100 {
b0010 %!
b001 -!
b00000000000000000000000000000001 5!
b000000000000000000000000000000000000000000000000000000000000000010010100000000000000000000000000000000000000000000000000000000000000000000 u!
b0000000000010000000000110001001100000000000000000000001000000000000000000000000000000010000001000011000000000000000000000000000000000100000000000000000000000000000000000000000000000000000000000000011111 g"
b00000000000000000000000000000001 Q'
b00000000000000000000000000000001 Y'
b000000000001000000000011000100110000000000000000000000100000000000000000000000000000001000000100000000000000000000000000000000011111 a'
b0000000000000000000000000000000000000000000000000000000000000000000000000000000000000000000000001001010000000000000000000000000000000000000000000000000000000000000000000000000000000000000000000000000000 +(
b00000000000000000000001000000100 e)
b00000000000000000000001000001000 m)
b00000000000000000000000000000010 u)
b00000000000100000000001100010011 })
b00000000000000000000001000000000 '*
b00000000000000000000001000000100 /*
b00000000000000000000000000000001 7*
b1111 ?*
b0010011 W*
b100101 1+
1[,
#102
0[,
#103
b00000000011100110000010001100011 K
b000000000111001100000100011000110000000000000000000000100000100000000000000000000000001000001100000000000000000000000000000000111111 S
b000000000001000000000011000100110000000000000000000000100000000000110000000000000000000000000000000001000000000000000000000000000000011111 u!
b00000000000000000000000000000001 ?"
b0000000000010000000000111001001100000000000000000000001000000100000000000000000000000010000010000011000000000000000000000000000000001000000000000000000000000000000000000000000000000000000000000000011111 g"
b00000000000000000000000000000010 Y'
b000000000001000000000011100100110000000000000000000000100000010000000000000000000000001000001000000000000000000000000000000000101111 a'
b0000000000010000000000110001001100000000000000000000001000000000000000000000000000000010000001000011000000000000000000000000000000000100000000000000000000000000000000000000000000000000000000000000011111 +(
b000000000000000000000000000000000000000000000000000000000000000010010100000000000000000000000000000000000000000000000000000000000000000000 c(
b001100010011 U)
b00000000000000000000001000001000 e)
b00000000000000000000001000001100 m)
b00000000000000000000000000000011 u)
b00000000000100000000001110010011 })
b00000000000000000000001000000100 '*
b00000000000000000000001000001000 /*
b00000000000000000000000000000010 7*
b00000000000100000000001100010011 o*
b00000000000000000000001000000000 w*
b00000000000000000000000000000001 !+
b00000000000000000000001000000100 )+
b001100 1+
b00000000000000000000000000000001 I+
b1111 Q+
b100101 Y+
1[,
#104
0[,
#105
b00000000001100000000000110010011 K
b000000000011000000000001100100110000000000000000000000100000110000000000000000000000001000010000000000000000000000000000000001001111 S
b011100 {
b0011 %!
b101 -!
b00000000000000000000000000000000 5!
b000000000001000000000011100100110000000000000000000000100000010000110000000000000000000000000000000010000000000000000000000000000000011111 u!
b0000000001110011000001000110001100000000000000000000001000001000000000000000000000000010000011000111000000000000000000000000000000001100000000000000000000000000000000000000000000000000000000000000011111 g"
b00000000000000000000000000000011 Y'
b000000000111001100000100011000110000000000000000000000100000100000000000000000000000001000001100000000000000000000000000000000111111 a'
b0000000000010000000000111001001100000000000000000000001000000100000000000000000000000010000010000011000000000000000000000000000000001000000000000000000000000000000000000000000000000000000000000000011111 +(
b000000000001000000000011000100110000000000000000000000100000000000110000000000000000000000000000000001000000000000000000000000000000011111 c(
b000000000000000000000000000000000000000000000000000000000000000010010100000000000000000000000000000000000000000000000000000000000000000000 -)
b001110010011 U)
b001100010011 ])
b00000000000000000000001000001100 e)
b00000000000000000000001000010000 m)
b00000000000000000000000000000100 u)
b00000000011100110000010001100011 })
b00000000000000000000001000001000 '*
b00000000000000000000001000001100 /*
b00000000000000000000000000000011 7*
b1100011 W*
b0010011 _*
b00110 g*
b00000000000100000000001110010011 o*
b00000000000000000000001000000100 w*
b00000000000000000000000000000010 !+
b00000000000000000000001000001000 )+
b001100 Y+
b00000000000000000000000000000001 a+
b00000000000100000000001100010011 i+
b00000000000000000000001000000000 q+
b00000000000000000000000000000001 y+
b1111 #,
b100101 +,
1[,
#106
0[,
#107
b1001100000000000000000000000000000000100000001100010011 ;
b00000000000100000000000110010011 K
b000000000001000000000001100100110000000000000000000000100001000000000000000000000000001000010100000000000000000000000000000001011111 S
b001100 {
b0010 %!
b001 -!
b00000000000000000000000000000011 5!
1=!
b00110 E!
b00000000000000000000000000000001 M!
b0010011 e!
b00110 m!
b000000000111001100000100011000110000000000000000000000100000100001110000000000000000000000000000000011000000000000000000000000000000011111 u!
1O"
b00110 W"
b00000000000000000000000000000001 _"
b0000000000110000000000011001001100000000000000000000001000001100000000000000000000000010000100000011000000000000000000000000000000010000000000000000000000000000000000000000000000000000000000000000111111 g"
b00000000000000000000000000000011 Q'
b00000000000000000000000000000100 Y'
b000000000011000000000001100100110000000000000000000000100000110000000000000000000000001000010000000000000000000000000000000001001111 a'
b0000000001110011000001000110001100000000000000000000001000001000000000000000000000000010000011000111000000000000000000000000000000001100000000000000000000000000000000000000000000000000000000000000011111 +(
b000000000001000000000011100100110000000000000000000000100000010000110000000000000000000000000000000010000000000000000000000000000000011111 c(
b000000000001000000000011000100110000000000000000000000100000000000110000000000000000000000000000000001000000000000000000000000000000011111 -)
b010001100011 U)
b001110010011 ])
b00000000000000000000001000010000 e)
b00000000000000000000001000010100 m)
b00000000000000000000000000000101 u)
b00000000001100000000000110010011 })
b00000000000000000000001000001100 '*
b00000000000000000000001000010000 /*
b00000000000000000000000000000100 7*
b0010011 W*
b00111 g*
b00000000011100110000010001100011 o*
b00000000000000000000001000001000 w*
b00000000000000000000000000000011 !+
b00000000000000000000001000001100 )+
b011100 1+
19+
b00000000000000000000000000000010 a+
b00000000000100000000001110010011 i+
b00000000000000000000001000000100 q+
b001100 +,
b00000000000100000000001100010011 3,
b00000000000000000000001000000000 ;,
b00000000000000000000000000000001 C,
b00000000000000000000000000000001 K,
b1111 S,
1[,
b00000000000000000000000000100101 W/
#108
b00000000000000000000000000000001 G#
0[,
b00000000000000000000000000000001 q,
#109
b1001110000000000000000000000000000000100000001110010011 ;
b00000000010000000000001100010011 K
b000000000100000000000011000100110000000000000000000000100001010000000000000000000000001000011000000000000000000000000000000001101111 S
b00000000000000000000000000000001 5!
b00111 E!
b00111 m!
b000000000011000000000001100100110000000000000000000000100000110000110000000000000000000000000000000100000000000000000000000000000000111111 u!
b00000000000000000000000000000011 ?"
b00111 W"
b0000000000010000000000011001001100000000000000000000001000010000000000000000000000000010000101000011000000000000000000000000000000010100000000000000000000000000000000000000000000000000000000000000011111 g"
b00000000000000000000000000000001 Q'
b00000000000000000000000000000101 Y'
b000000000001000000000001100100110000000000000000000000100001000000000000000000000000001000010100000000000000000000000000000001011111 a'
b0000000000110000000000011001001100000000000000000000001000001100000000000000000000000010000100000011000000000000000000000000000000010000000000000000000000000000000000000000000000000000000000000000111111 +(
b000000000111001100000100011000110000000000000000000000100000100001110000000000000000000000000000000011000000000000000000000000000000011111 c(
b000000000001000000000011100100110000000000000000000000100000010000110000000000000000000000000000000010000000000000000000000000000000011111 -)
b000110010011 U)
b010001100011 ])
b00000000000000000000001000010100 e)
b00000000000000000000001000011000 m)
b00000000000000000000000000000110 u)
b00000000000100000000000110010011 })
b00000000000000000000001000010000 '*
b00000000000000000000001000010100 /*
b00000000000000000000000000000101 7*
b1100011 _*
b01000 g*
b00000000001100000000000110010011 o*
b00000000000000000000001000001100 w*
b00000000000000000000000000000100 !+
b00000000000000000000001000010000 )+
b001100 1+
09+
b00000000000000000000000000000011 I+
b011100 Y+
b00000000000000000000000000000011 a+
b00000000011100110000010001100011 i+
b00000000000000000000001000001000 q+
b00000000000100000000001110010011 3,
b00000000000000000000001000000100 ;,
b00000000000000000000000000000010 C,
1[,
b00000000000000000000001000000000 R/
b00000000000100000000001100010011 S/
b00000000000000000000000000000001 T/
b00000000000000000000000000000001 U/
b00000000000000000000000000000001 V/
b00000000000000000000000000001100 W/
b00000000000000000000000000000110 X/
#110
#111
b00000000000000000000000000000001 H#
0[,
b00000000000000000000000000000001 r,
